<?xml version="1.0" encoding="UTF-8"?>
<session version="1.0">
<refactoring comment="Rename local variable &apos;in&apos; in &apos;com.hellokoding.account.repository.EmpDao.save(...)&apos; to &apos;mapSelParameterSource&apos;&#x0D;&#x0A;- Original project: &apos;registration-login-spring-xml-maven-jsp-mysql&apos;&#x0D;&#x0A;- Original element: &apos;com.hellokoding.account.repository.EmpDao.save(Emp).in&apos;&#x0D;&#x0A;- Renamed element: &apos;in&apos;&#x0D;&#x0A;- Update references to refactored element" description="Rename local variable &apos;in&apos;" id="org.eclipse.jdt.ui.rename.local.variable" input="/src\/main\/java&lt;com.hellokoding.account.repository{EmpDao.java[EmpDao~save~QEmp;@in!836!890!858!859!QMapSqlParameterSource;!0!false" name="mapSelParameterSource" references="true" stamp="1558685704676" version="1.0"/>
</session>